<svg xmlns="http://www.w3.org/2000/svg" xmlns:xlink="http://www.w3.org/1999/xlink" width="506.25" height="150" viewBox="0 0 506.25 150">
  <defs>
    <linearGradient id="linear-gradient" x1="0.908" y1="1.032" x2="-0.383" y2="0.36" gradientUnits="objectBoundingBox">
      <stop offset="0" stop-color="#00a0ff"/>
      <stop offset="0.007" stop-color="#00a1ff"/>
      <stop offset="0.26" stop-color="#00beff"/>
      <stop offset="0.512" stop-color="#00d2ff"/>
      <stop offset="0.76" stop-color="#00dfff"/>
      <stop offset="1" stop-color="#00e3ff"/>
    </linearGradient>
    <linearGradient id="linear-gradient-2" x1="1.077" y1="0.729" x2="-1.307" y2="0.729" gradientUnits="objectBoundingBox">
      <stop offset="0" stop-color="#ffe000"/>
      <stop offset="0.409" stop-color="#ffbd00"/>
      <stop offset="0.775" stop-color="orange"/>
      <stop offset="1" stop-color="#ff9c00"/>
    </linearGradient>
    <linearGradient id="linear-gradient-3" x1="0.864" y1="-0.023" x2="-0.499" y2="-1.789" gradientUnits="objectBoundingBox">
      <stop offset="0" stop-color="#ff3a44"/>
      <stop offset="1" stop-color="#c31162"/>
    </linearGradient>
    <linearGradient id="linear-gradient-4" x1="-0.186" y1="2.701" x2="0.423" y2="1.909" gradientUnits="objectBoundingBox">
      <stop offset="0" stop-color="#32a071"/>
      <stop offset="0.069" stop-color="#2da771"/>
      <stop offset="0.476" stop-color="#15cf74"/>
      <stop offset="0.801" stop-color="#06e775"/>
      <stop offset="1" stop-color="#00f076"/>
    </linearGradient>
  </defs>
  <g id="play_store" data-name="play store" transform="translate(-2929 -905)">
    <path id="Path_24" data-name="Path 24" d="M487.5,150H18.75A18.568,18.568,0,0,1,0,131.25V18.75A18.568,18.568,0,0,1,18.75,0H487.5a18.568,18.568,0,0,1,18.75,18.75v112.5A18.568,18.568,0,0,1,487.5,150Z" transform="translate(2929 905)"/>
    <path id="Path_26" data-name="Path 26" d="M63.9,19.275c0,3-.75,5.625-2.625,7.5a11.026,11.026,0,0,1-8.25,3.375,11.026,11.026,0,0,1-8.25-3.375,11.026,11.026,0,0,1-3.375-8.25,11.026,11.026,0,0,1,3.375-8.25A11.026,11.026,0,0,1,53.025,6.9a9.985,9.985,0,0,1,4.5,1.125A8.166,8.166,0,0,1,60.9,10.65l-1.875,1.875a6.993,6.993,0,0,0-6-2.625,7.461,7.461,0,0,0-6,2.625c-1.875,1.5-2.625,3.75-2.625,6.375s.75,4.875,2.625,6.375,3.75,2.625,6,2.625A8.225,8.225,0,0,0,59.4,25.275a6.21,6.21,0,0,0,1.875-4.5h-8.25v-3H63.9v1.5ZM81.15,9.9H71.025v7.125H80.4V19.65H71.025v7.125H81.15v3H68.025V7.275H81.15ZM93.525,29.775h-3V9.9H84.15V7.275H99.9V9.9H93.525Zm17.25,0V7.275h3v22.5Zm15.75,0h-3V9.9H117.15V7.275h15.375V9.9H126.15V29.775Zm35.625-3a11.771,11.771,0,0,1-16.5,0,11.026,11.026,0,0,1-3.375-8.25,11.026,11.026,0,0,1,3.375-8.25,11.771,11.771,0,0,1,16.5,0,11.026,11.026,0,0,1,3.375,8.25A11.026,11.026,0,0,1,162.15,26.775ZM147.9,24.9a8.849,8.849,0,0,0,6,2.625,7.461,7.461,0,0,0,6-2.625,9.047,9.047,0,0,0,2.625-6.375c0-2.625-.75-4.875-2.625-6.375a8.849,8.849,0,0,0-6-2.625,7.461,7.461,0,0,0-6,2.625,9.047,9.047,0,0,0-2.625,6.375C145.275,21.15,146.025,23.4,147.9,24.9Zm21.75,4.875V7.275h3.375L183.9,24.9V7.275h3v22.5h-3L172.275,11.4V29.775H169.65Z" transform="translate(3042.85 923.975)" fill="#fff" stroke="#fff" stroke-miterlimit="10" stroke-width="0.2"/>
    <path id="Path_27" data-name="Path 27" d="M142.35,34.725A15.777,15.777,0,0,0,126.225,50.85,16.006,16.006,0,0,0,142.35,66.975,15.777,15.777,0,0,0,158.475,50.85C158.475,41.1,151.35,34.725,142.35,34.725Zm0,25.5c-4.875,0-9-4.125-9-9.75s4.125-9.75,9-9.75,9,3.75,9,9.75C151.35,56.1,147.225,60.225,142.35,60.225Zm-34.875-25.5A15.777,15.777,0,0,0,91.35,50.85a16.006,16.006,0,0,0,16.125,16.125A15.777,15.777,0,0,0,123.6,50.85C123.6,41.1,116.475,34.725,107.475,34.725Zm0,25.5c-4.875,0-9-4.125-9-9.75s4.125-9.75,9-9.75,9,3.75,9,9.75C116.475,56.1,112.35,60.225,107.475,60.225ZM65.85,39.6v6.75H81.975a14.18,14.18,0,0,1-3.75,8.625A16.6,16.6,0,0,1,65.85,59.85c-10.125,0-17.625-7.875-17.625-18a17.689,17.689,0,0,1,17.625-18,18.594,18.594,0,0,1,12.375,4.875L83.1,23.85A24.03,24.03,0,0,0,66.225,17.1C52.725,17.1,41.1,28.35,41.1,41.85S52.725,66.6,66.225,66.6c7.5,0,12.75-2.25,17.25-7.125,4.5-4.5,6-10.875,6-15.75A14.061,14.061,0,0,0,89.1,39.6H65.85ZM236.1,44.85c-1.5-3.75-5.25-10.125-13.5-10.125s-15,6.375-15,16.125c0,9,6.75,16.125,15.75,16.125a15.383,15.383,0,0,0,13.125-7.125l-5.25-3.75c-1.875,2.625-4.125,4.5-7.875,4.5s-6-1.5-7.875-4.875l21.375-9-.75-1.875ZM214.35,50.1c0-6,4.875-9.375,8.25-9.375,2.625,0,5.25,1.5,6,3.375l-14.25,6ZM196.725,65.475h7.125V18.6h-7.125ZM185.475,38.1a12.347,12.347,0,0,0-8.625-3.75c-7.875,0-15.375,7.125-15.375,16.125a15.528,15.528,0,0,0,15.375,15.75,10.767,10.767,0,0,0,8.25-3.75h.375v2.25c0,6-3.375,9.375-8.625,9.375a8.331,8.331,0,0,1-7.875-5.625l-6,2.625a15.47,15.47,0,0,0,14.25,9.375c8.25,0,15-4.875,15-16.5v-28.5h-6.75V38.1Zm-8.25,22.125c-4.875,0-9-4.125-9-9.75s4.125-9.75,9-9.75,8.625,4.125,8.625,9.75S182.1,60.225,177.225,60.225Zm91.5-41.625H251.85V65.475h7.125V47.85h9.75c7.875,0,15.375-5.625,15.375-14.625S276.6,18.6,268.725,18.6Zm.375,22.5H258.975V24.975H269.1a8.237,8.237,0,0,1,8.25,7.875c-.375,4.125-3.375,8.25-8.25,8.25Zm43.125-6.75c-5.25,0-10.5,2.25-12.375,7.125l6.375,2.625c1.5-2.625,3.75-3.375,6.375-3.375,3.75,0,7.125,2.25,7.5,6V47.1a14.874,14.874,0,0,0-7.125-1.875c-6.75,0-13.5,3.75-13.5,10.5,0,6.375,5.625,10.5,11.625,10.5,4.875,0,7.125-2.25,9-4.5h.375v3.75h6.75v-18c-.75-8.25-7.125-13.125-15-13.125Zm-.75,25.875c-2.25,0-5.625-1.125-5.625-4.125,0-3.75,4.125-4.875,7.5-4.875a14.5,14.5,0,0,1,6.375,1.5A8.734,8.734,0,0,1,311.475,60.225Zm39.375-24.75-7.875,20.25H342.6l-8.25-20.25h-7.5l12.375,28.5L332.1,79.725h7.125l19.125-44.25h-7.5Zm-63,30h7.125V18.6H287.85Z" transform="translate(3042.025 952.025)" fill="#fff"/>
    <g id="Group_9" data-name="Group 9" transform="translate(2966.5 931.802)">
      <path id="Path_28" data-name="Path 28" d="M11.5,7.5c-1.125,1.125-1.5,3-1.5,5.25V95.625a7.418,7.418,0,0,0,1.875,5.25l.375.375,46.5-46.5V54Z" transform="translate(-10 -6.177)" fill="url(#linear-gradient)"/>
      <path id="Path_29" data-name="Path 29" d="M38.275,47.675,22.9,32.3V31.175L38.275,15.8l.375.375,18.375,10.5c5.25,3,5.25,7.875,0,10.875Z" transform="translate(25.475 16.648)" fill="url(#linear-gradient-2)"/>
      <path id="Path_30" data-name="Path 30" d="M73.025,35.75,57.275,20,10.4,66.875c1.875,1.875,4.5,1.875,7.875.375l54.75-31.5" transform="translate(-8.9 28.198)" fill="url(#linear-gradient-3)"/>
      <path id="Path_31" data-name="Path 31" d="M73.025,39.529,18.275,8.4c-3.375-1.875-6-1.5-7.875.375l46.875,46.5,15.75-15.75Z" transform="translate(-8.9 -7.081)" fill="url(#linear-gradient-4)"/>
      <path id="Path_32" data-name="Path 32" d="M72.65,24.1,18.275,54.85c-3,1.875-5.625,1.5-7.5,0l-.375.375.375.375c1.875,1.5,4.5,1.875,7.5,0Z" transform="translate(-8.9 39.473)" opacity="0.2"/>
      <path id="Path_33" data-name="Path 33" d="M11.5,66.125c-1.125-1.125-1.5-3-1.5-5.25v.375a7.418,7.418,0,0,0,1.875,5.25v-.375H11.5Zm81-41.25-18.75,10.5.375.375L92.5,25.25c2.625-1.5,3.75-3.375,3.75-5.25C96.25,21.875,94.75,23.375,92.5,24.875Z" transform="translate(-10 28.198)" opacity="0.12"/>
      <path id="Path_34" data-name="Path 34" d="M19.375,8.845,92.5,50.47c2.25,1.5,3.75,3,3.75,4.875,0-1.875-1.125-3.75-3.75-5.25L19.375,8.47C14.125,5.47,10,7.72,10,13.72V14.1C10,8.47,14.125,5.845,19.375,8.845Z" transform="translate(-10 -7.147)" fill="#fff" opacity="0.25"/>
    </g>
  </g>
</svg>
